Regression with one numeric explanatory variable
…
### Generating predictions using the regression model

We can also find the predicted values and residual error values for each observed birth weight that we fit our model to by applying the `get_regression_points` function to the linear model object we saved.

--

```r
get_regression_points(weeks_model)
```

--

```
## # A tibble: 998 x 5
##       ID weight weeks weight_hat residual
##    <int>  <dbl> <int>      <dbl>    <dbl>
##  1     1   2.69    32       4.92   -2.23 
##  2     2   8.88    38       6.99    1.89 
##  3     3   7.06    38       6.99    0.071
##  4     4   7.44    42       8.37   -0.926
##  5     5   6.38    40       7.68   -1.30 
##  6     6   7.5     38       6.99    0.511
##  7     7   7.63    39       7.33    0.297
##  8     8   7.13    41       8.02   -0.892
##  9     9   8.5     40       7.68    0.822
## 10    10   8.25    37       6.64    1.60 
## # … with 988 more rows
```
…
