An Additive Multiple Regression Model
…
???

offset and slope stuff here

---

### Predictions and Residuals for the observed data

```r
get_regression_points(smoker_weeks_parallel_model)
```

```
## # A tibble: 998 x 6
##       ID weight smoker     weeks weight_hat residual
##    <int>  <dbl> <fct>      <int>      <dbl>    <dbl>
##  1     1   2.69 smoker        32       4.61   -1.92 
##  2     2   8.88 non-smoker    38       7.03    1.85 
##  3     3   7.06 non-smoker    38       7.03    0.026
##  4     4   7.44 non-smoker    42       8.41   -0.974
##  5     5   6.38 smoker        40       7.36   -0.985
##  6     6   7.5  non-smoker    38       7.03    0.466
##  7     7   7.63 non-smoker    39       7.38    0.251
##  8     8   7.13 non-smoker    41       8.07   -0.939
##  9     9   8.5  non-smoker    40       7.72    0.776
## 10    10   8.25 non-smoker    37       6.69    1.56 
## # … with 988 more rows
```
…
